{
  "version": 6,
  "cmakeMinimumRequired": {
    "major": 3,
    "minor": 12
  },
  "configurePresets": [
    {
      "name": "default",
      "displayName": "♥ Joeri default ♥",
      "generator": "Ninja",
      "binaryDir": "$env{MONETDB_DIR}/BUILD",
      "installDir": "$env{MONETDB_DIR}/inst",
      "cacheVariables": {
        "CMAKE_BUILD_TYPE": "Debug",
        "CMAKE_INSTALL_MESSAGE": "NEVER",
        "STRICT": "ON",
        "SANITIZER": "ON",
        "CMAKE_C_FLAGS_DEBUG": "-ggdb3"
      }
    }
  ],
  "buildPresets": [
    {
      "name": "default",
      "displayName": "Joeri default",
      "configurePreset": "default",
      "targets": [ "install" ]
    }
  ]
}


